{
    "KPlugin": {
        "Authors": [
            {
                "Email": "plasma-devel@kde.org",
                "Name": "Plasma Team",
                "Name[ar]": "فريق بلازما",
                "Name[az]": "Plasma komandası",
                "Name[ca]": "L'equip del Plasma",
                "Name[cs]": "Team Plasma",
                "Name[de]": "Das Plasma-Team",
                "Name[en_GB]": "Plasma Team",
                "Name[es]": "Equipo de Plasma",
                "Name[eu]": "Plasma taldea",
                "Name[fi]": "Plasma-työryhmä",
                "Name[fr]": "Équipe de Plasma",
                "Name[hu]": "A Plasma fejlesztői",
                "Name[ia]": "Equipa de Plasma",
                "Name[it]": "La squadra di Plasma",
                "Name[ko]": "Plasma 팀",
                "Name[lt]": "Plasma komanda",
                "Name[nl]": "Team van Plasma",
                "Name[nn]": "Utviklingslaget for Plasma",
                "Name[pa]": "ਪਲਾਜ਼ਮਾ ਟੀਮ",
                "Name[pl]": "Zespół Plazmy",
                "Name[pt_BR]": "Temas do Plasma",
                "Name[ro]": "Echipa Plasma",
                "Name[ru]": "Команда разработчиков Plasma",
                "Name[sk]": "Plasma Tím",
                "Name[sl]": "Ekipa Plasme",
                "Name[sv]": "Plasma-gruppen",
                "Name[ta]": "பிளாஸ்மா குழு",
                "Name[tr]": "Plazma Takımı",
                "Name[uk]": "Команда розробників Плазми",
                "Name[vi]": "Đội Plasma",
                "Name[x-test]": "xxPlasma Teamxx",
                "Name[zh_CN]": "Plasma 开发团队"
            }
        ],
        "Description": "File and URL opener",
        "Description[ar]": "فاتح ملفات ووصلات",
        "Description[az]": "Fayl və URL-ların açılması",
        "Description[ca]": "Obre fitxers i URL",
        "Description[cs]": "Otvírač souborů a URL",
        "Description[de]": "Öffnet Dateien und Adressen",
        "Description[en_GB]": "File and URL opener",
        "Description[es]": "Visor de archivos y URL",
        "Description[eu]": "Fitxategiak eta URLak irekitzekoa",
        "Description[fi]": "Tiedostojen ja verkko-osoitteiden avaus",
        "Description[fr]": "Ouverture de fichiers et d'URL",
        "Description[hu]": "Fájlmegnyitó",
        "Description[ia]": "Aperitor de file e de URL",
        "Description[it]": "Apertura di file e di URL",
        "Description[ko]": "파일과 URL을 여는 도구",
        "Description[lt]": "Failų ir URL atvėrimo įrankis",
        "Description[nl]": "Openen van bestanden en URL-adressen",
        "Description[nn]": "Opna filer og nettadresser",
        "Description[pa]": "ਫਾਇਲ ਅਤੇ URL ਖੋਲ੍ਹਣ ਵਾਲਾ",
        "Description[pl]": "Otwiera pliki i adresy URL",
        "Description[pt_BR]": "Abertura de arquivos e URLs",
        "Description[ro]": "Deschizător de fișiere și URL-uri",
        "Description[ru]": "Открытие файлов и ссылок",
        "Description[sk]": "Otváranie súborov a URL adries",
        "Description[sl]": "Odpri datoteke in naslove URL",
        "Description[sv]": "Öppna filer och webbadresser",
        "Description[ta]": "கோப்புகள் மற்றும் முகவரிகளை திறக்கும் சேவை",
        "Description[tr]": "Dosya ve URL açıcı",
        "Description[uk]": "Відкривання файлів і адрес URL",
        "Description[vi]": "Trình mở tệp và URL",
        "Description[x-test]": "xxFile and URL openerxx",
        "Description[zh_CN]": "文件和链接打开程序",
        "EnabledByDefault": true,
        "Icon": "system-file-manager",
        "Id": "locations",
        "License": "LGPL",
        "Name": "Locations",
        "Name[ar]": "المواقع",
        "Name[ast]": "Allugamientos",
        "Name[az]": "Məkanlar",
        "Name[be@latin]": "Miescy",
        "Name[bg]": "Местоположения",
        "Name[bn]": "অবস্থান",
        "Name[bn_IN]": "অবস্থান",
        "Name[bs]": "Lokacije",
        "Name[ca@valencia]": "Ubicacions",
        "Name[ca]": "Ubicacions",
        "Name[cs]": "Umístění",
        "Name[csb]": "Dzejania",
        "Name[da]": "Placeringer",
        "Name[de]": "Orte",
        "Name[el]": "Τοποθεσίες",
        "Name[en_GB]": "Locations",
        "Name[eo]": "Lokoj",
        "Name[es]": "Ubicaciones",
        "Name[et]": "Asukohad",
        "Name[eu]": "Kokalekuak",
        "Name[fi]": "Sijainnit",
        "Name[fr]": "Emplacements",
        "Name[fy]": "Lokaasjes",
        "Name[ga]": "Áiteanna",
        "Name[gl]": "Lugares",
        "Name[gu]": "સ્થળો",
        "Name[he]": "מיקומים",
        "Name[hi]": "स्थान",
        "Name[hne]": "जगह",
        "Name[hr]": "Lokacije",
        "Name[hsb]": "Městna",
        "Name[hu]": "Helyek",
        "Name[ia]": "Locationes",
        "Name[id]": "Lokasi",
        "Name[is]": "Staðsetningar",
        "Name[it]": "Posizioni",
        "Name[ja]": "場所",
        "Name[kk]": "Адрестер",
        "Name[km]": "ទីតាំង",
        "Name[kn]": "ಸ್ಥಳಗಳು",
        "Name[ko]": "위치",
        "Name[ku]": "Cih",
        "Name[lt]": "Vietos",
        "Name[lv]": "Vietas",
        "Name[mk]": "Локации",
        "Name[ml]": "സ്ഥാനങ്ങള്‍",
        "Name[mr]": "स्थान",
        "Name[nb]": "Steder",
        "Name[nds]": "Steden",
        "Name[nl]": "Locaties",
        "Name[nn]": "Adresser",
        "Name[or]": "ସ୍ଥାନଗୁଡ଼ିକ",
        "Name[pa]": "ਟਿਕਾਣੇ",
        "Name[pl]": "Położenia",
        "Name[pt]": "Locais",
        "Name[pt_BR]": "Localizações",
        "Name[ro]": "Amplasări",
        "Name[ru]": "Расположения",
        "Name[si]": "පිහිටුම",
        "Name[sk]": "Miesta",
        "Name[sl]": "Mesta",
        "Name[sr@ijekavian]": "локације",
        "Name[sr@ijekavianlatin]": "lokacije",
        "Name[sr@latin]": "lokacije",
        "Name[sr]": "локације",
        "Name[sv]": "Platser",
        "Name[ta]": "இடங்கள்",
        "Name[te]": "స్థానములు",
        "Name[tg]": "Ҷойгиршавиҳо",
        "Name[th]": "ตำแหน่งที่อยู่",
        "Name[tr]": "Konumlar",
        "Name[ug]": "ئورنى",
        "Name[uk]": "Адреси",
        "Name[vi]": "Địa điểm",
        "Name[wa]": "Eplaeçmints",
        "Name[x-test]": "xxLocationsxx",
        "Name[zh_CN]": "位置",
        "Name[zh_TW]": "位置"
    },
    "X-Plasma-Runner-Unique-Results": true,
    "X-Plasma-Runner-Weak-Results": false
}
