{
    "KPlugin": {
        "Authors": [
            {
                "Email": "chani@kde.org",
                "Name": "Chani",
                "Name[ar]": "تشاني",
                "Name[az]": "Chani",
                "Name[ca]": "Chani",
                "Name[cs]": "Chani",
                "Name[de]": "Chani",
                "Name[en_GB]": "Chani",
                "Name[es]": "Chani",
                "Name[eu]": "Chani",
                "Name[fi]": "Chani",
                "Name[fr]": "Chani",
                "Name[hu]": "Chani",
                "Name[ia]": "Chani",
                "Name[it]": "Chani",
                "Name[ko]": "Chani",
                "Name[lt]": "Chani",
                "Name[nl]": "Chani",
                "Name[nn]": "Chani",
                "Name[pl]": "Chani",
                "Name[pt_BR]": "Chani",
                "Name[ro]": "Chani",
                "Name[ru]": "Chani",
                "Name[sk]": "Chani",
                "Name[sl]": "Chani",
                "Name[sv]": "Chani",
                "Name[tr]": "Chani",
                "Name[uk]": "Chani",
                "Name[vi]": "Chani",
                "Name[x-test]": "xxChanixx",
                "Name[zh_CN]": "Chani"
            }
        ],
        "Description": "Switch to another activity",
        "Description[ar]": "بدّل إلى نشاط آخر",
        "Description[az]": "Başqa İş Otağına keçidi təmin edir",
        "Description[ca]": "Canvia a una altra activitat",
        "Description[cs]": "Přepnout na jinou aktivitu",
        "Description[de]": "Zu einer anderen Aktivität wechseln",
        "Description[en_GB]": "Switch to another activity",
        "Description[es]": "Cambiar a otra actividad",
        "Description[eu]": "Aldatu beste jarduera batera",
        "Description[fi]": "Vaihda toiseen aktiviteettiin",
        "Description[fr]": "Basculer vers une autre activité",
        "Description[hu]": "Váltás másik aktivitásra",
        "Description[ia]": "Commuta  a altere activitate",
        "Description[it]": "Passa ad un'altra attività",
        "Description[ko]": "다른 활동으로 전환합니다",
        "Description[lt]": "Perjungti į kitą veiklą",
        "Description[nl]": "Schakel naar een andere activiteit",
        "Description[nn]": "Byt til ein annan aktivitet",
        "Description[pa]": "ਹੋਰ ਐਕਟਵਿਟੀ ਉੱਤੇ ਜਾਓ",
        "Description[pl]": "Przełącza między aktywnościami",
        "Description[pt_BR]": "Alterna para outra atividade",
        "Description[ro]": "Comută la altă activitate",
        "Description[ru]": "Переключение на другую комнату",
        "Description[sk]": "Prepne na inú aktivitu",
        "Description[sl]": "Preklopi na drugo dejavnost",
        "Description[sv]": "Byt till en annan aktivitet",
        "Description[ta]": "வேறு செயல்பாட்டிற்கு தாவு",
        "Description[tr]": "Başka bir etkinliğe geç",
        "Description[uk]": "Перемкнутися на інший простір дій",
        "Description[vi]": "Chuyển sang một Hoạt động khác",
        "Description[x-test]": "xxSwitch to another activityxx",
        "Description[zh_CN]": "切换到另一个活动",
        "EnabledByDefault": true,
        "Icon": "dashboard-show",
        "Id": "switchactivity",
        "License": "GPL",
        "Name": "Switch Activity",
        "Name[ar]": "بدّل النشاط",
        "Name[az]": "İş Otaqlarına keçid",
        "Name[bg]": "Превключване на дейност",
        "Name[bs]": "Prebacivanje aktivnosti",
        "Name[ca@valencia]": "Canvi d'activitat",
        "Name[ca]": "Canvi d'activitat",
        "Name[cs]": "Přepnout aktivitu",
        "Name[da]": "Skift aktivitet",
        "Name[de]": "Aktivität wechseln",
        "Name[el]": "Εναλλαγή δραστηριότητας",
        "Name[en_GB]": "Switch Activity",
        "Name[eo]": "Ŝalti Aktivecon",
        "Name[es]": "Cambiar actividad",
        "Name[et]": "Tegevuse vahetamine",
        "Name[eu]": "Jardueraz aldatu",
        "Name[fi]": "Vaihda aktiviteettia",
        "Name[fr]": "Changer d'activité",
        "Name[fy]": "Aktiviteit wikselje",
        "Name[ga]": "Athraigh Gníomhaíocht",
        "Name[gl]": "Cambiar de actividade",
        "Name[he]": "מחליף פעילות",
        "Name[hi]": "क्रिया बदलें",
        "Name[hr]": "Prebaci aktivnost",
        "Name[hsb]": "K druhej aktiwiće hić",
        "Name[hu]": "Aktivitásváltás",
        "Name[ia]": "Commuta activitate",
        "Name[id]": "Alihkan Aktivitas",
        "Name[is]": "Skipta um virkni",
        "Name[it]": "Cambia attività",
        "Name[ja]": "アクティビティを切り替え",
        "Name[kk]": "Белсенділікті ауыстыру",
        "Name[km]": "ប្ដូរ​សកម្មភាព",
        "Name[kn]": "ಚಟುವಟಿಕೆಯನ್ನು ಬದಲಾಯಿಸು",
        "Name[ko]": "활동 전환",
        "Name[lt]": "Perjungti veiklą",
        "Name[lv]": "Pārslēgt aktivitāti",
        "Name[mk]": "Смени активност",
        "Name[ml]": "പ്രക്രിയ മാറ്റുക",
        "Name[mr]": "वेगळ्या कार्यपध्दती वर जा",
        "Name[nb]": "Bytt aktivitet",
        "Name[nds]": "Aktiviteet wesseln",
        "Name[nl]": "Activiteit omschakelen",
        "Name[nn]": "Byt aktivitet",
        "Name[pa]": "ਐਕਟਵਿਟੀ ਬਦਲੋ",
        "Name[pl]": "Przełącznik aktywności",
        "Name[pt]": "Mudar de Actividade",
        "Name[pt_BR]": "Alternar atividade",
        "Name[ro]": "Comutare activitate",
        "Name[ru]": "Переключение комнат",
        "Name[si]": "කාර්‍යය මාරුකරන්න",
        "Name[sk]": "Prepnúť aktivitu",
        "Name[sl]": "Preklopi med dejavnostmi",
        "Name[sr@ijekavian]": "пребацивање активности",
        "Name[sr@ijekavianlatin]": "prebacivanje aktivnosti",
        "Name[sr@latin]": "prebacivanje aktivnosti",
        "Name[sr]": "пребацивање активности",
        "Name[sv]": "Byt aktivitet",
        "Name[ta]": "செயல்பாட்டை மாற்று",
        "Name[tg]": "Гузариши фаъолият",
        "Name[th]": "สลับกิจกรรม",
        "Name[tr]": "Etkinlik Değiştir",
        "Name[ug]": "پائالىيەت ئالماشتۇر",
        "Name[uk]": "Перемкнути простір дій",
        "Name[vi]": "Chuyển Hoạt động",
        "Name[wa]": "Potchî a ene ôte activité",
        "Name[x-test]": "xxSwitch Activityxx",
        "Name[zh_CN]": "切换活动",
        "Name[zh_TW]": "切換活動",
        "Version": "pre0.1",
        "Website": "https://www.kde.org/plasma-desktop"
    }
}
