{
    "KPlugin": {
        "Description": "Geolocation from IP address.",
        "Description[ar]": "تحديد الموقع الجغرافي من عنوان الإنترنت",
        "Description[az]": "İP ünvanına görə coğrafi məkan",
        "Description[ca]": "Geolocalització des d'una adreça IP.",
        "Description[cs]": "Geolokace z IP adresy.",
        "Description[de]": "Geolokalisierung mittels IP-Adresse.",
        "Description[en_GB]": "Geolocation from IP address.",
        "Description[es]": "Geolocalización desde una dirección IP.",
        "Description[eu]": "Geokokapena IP helbidetik.",
        "Description[fi]": "Sijaintitieto IP-osoitteesta.",
        "Description[fr]": "Géo-localisation depuis une adresse IP.",
        "Description[hu]": "Meghatározza a földrajzi helyzetet az IP cím alapján.",
        "Description[ia]": "Geolocation ex adresse IP",
        "Description[it]": "Geolocalizzazione dall'indirizzo IP.",
        "Description[ko]": "IP에서 얻어낸 주소입니다.",
        "Description[lt]": "Geografinės vietos nustatymas pagal IP adresą.",
        "Description[nl]": "Geolocatie uit IP-adres.",
        "Description[nn]": "Geolocation med IP-adresse.",
        "Description[pa]": "IP ਐਡਰੈੱਸ ਤੋਂ ਭੂਗੋਲਿਕ-ਟਿਕਾਣਾ",
        "Description[pl]": "Geolokalizuje za pomocą adresu IP.",
        "Description[pt_BR]": "Localização geográfica de endereços IP.",
        "Description[ro]": "Geolocalizare din adresă IP.",
        "Description[ru]": "Геолокация по IP-адресу.",
        "Description[sk]": "Geolokalizácia z IP adresy.",
        "Description[sl]": "Geolokacija iz naslova IP.",
        "Description[sv]": "Geografisk lokalisering från IP-adress.",
        "Description[ta]": "IP முகவரியிலிருந்து இருப்பிடத்தைக் கண்டுபிடிக்கும்",
        "Description[tr]": "IP adresinden coğrafi konum.",
        "Description[uk]": "Геопозиціювання за IP-адресою",
        "Description[vi]": "Định vị địa lí từ địa chỉ IP.",
        "Description[x-test]": "xxGeolocation from IP address.xx",
        "Description[zh_CN]": "通过 IP 地址确定的地理位置。",
        "Icon": "applications-internet",
        "Id": "ip",
        "Name": "Geolocation IP",
        "Name[ar]": "تحديد الموقع الجغرافي عنوان الإنترنت",
        "Name[az]": "İP üzrə coğrafi məkan",
        "Name[bg]": "Геолокация (IP)",
        "Name[bs]": "Geolokacija IP",
        "Name[ca@valencia]": "Geolocalització IP",
        "Name[ca]": "Geolocalització IP",
        "Name[cs]": "Geolokace IP",
        "Name[csb]": "IP geògrafny lokalizacëji",
        "Name[da]": "IP-adresse til geo-lokalisering",
        "Name[de]": "Geolokalisierung IP",
        "Name[el]": "Γεωτοποθεσίες IP",
        "Name[en_GB]": "Geolocation IP",
        "Name[eo]": "GeoLokado IP",
        "Name[es]": "Geolocalización mediante IP",
        "Name[et]": "Geolokatsioon IP-st",
        "Name[eu]": "IP geokokapen",
        "Name[fi]": "Paikkasijainti-ip-osoite",
        "Name[fr]": "Géo-localisation par IP",
        "Name[fy]": "Geolokaasje IP",
        "Name[ga]": "Geolocation IP",
        "Name[gl]": "Xeolocalización pola IP",
        "Name[he]": "מציאת מיקום גיאוגרפי IP",
        "Name[hi]": "भौगोलिक स्थान आइपी",
        "Name[hr]": "IP geolociranje",
        "Name[hsb]": "Geolokacija IP",
        "Name[hu]": "Földrajzi helyzet IP címmel",
        "Name[ia]": "Geolocation IP",
        "Name[id]": "Geolokasi IP",
        "Name[is]": "IP vistfang hnattstaðsetningar",
        "Name[it]": "Geolocalizzazione IP",
        "Name[ja]": "ジオロケーション IP",
        "Name[kk]": "IP-ден орнын табу",
        "Name[km]": "IP ទីតាំង​ភូមិសាស្ត្រ",
        "Name[kn]": "ಭೂಪ್ರದೇಶದ IP",
        "Name[ko]": "IP 위치",
        "Name[lt]": "Geografinės vietos nustatymas pagal IP",
        "Name[lv]": "Ģeolokācija IP",
        "Name[mai]": "भूअवस्थिति IP",
        "Name[mk]": "ИП за геолоцирање",
        "Name[ml]": "ഭൂസ്ഥാന ഐപി",
        "Name[mr]": "जिओलोकेशन IP",
        "Name[nb]": "Geografisk plassering IP",
        "Name[nds]": "IP-Eersteed",
        "Name[nl]": "Geolocatie-IP",
        "Name[nn]": "Geolocation IP",
        "Name[pa]": "ਭੂਗੋਲਿਕ-ਟਿਕਾਣਾ IP",
        "Name[pl]": "Geolokalizacja: IP",
        "Name[pt]": "Geo-Localização por IP",
        "Name[pt_BR]": "Localização geográfica IP",
        "Name[ro]": "IP geolocalizare",
        "Name[ru]": "Геолокация по IP-адресу",
        "Name[si]": "පිහිටුම් IP",
        "Name[sk]": "Geolokalizácia IP",
        "Name[sl]": "Geolokacija IP",
        "Name[sr@ijekavian]": "геолокација ИП",
        "Name[sr@ijekavianlatin]": "geolokacija IP",
        "Name[sr@latin]": "geolokacija IP",
        "Name[sr]": "геолокација ИП",
        "Name[sv]": "Lokalisera geografiskt med IP-adress",
        "Name[ta]": "IP மூலம் புவியிருப்பிடம்",
        "Name[tg]": "Ҷойгиршавии ҷуғрофии IP",
        "Name[th]": "การระบุพิกัดตำแหน่งจากไอพี",
        "Name[tr]": "Geolocation IP",
        "Name[ug]": "جۇغراپىيىلىك ئورۇن IP",
        "Name[uk]": "Геопозиціювання за IP",
        "Name[vi]": "Định vị địa lí IP",
        "Name[wa]": "Gjeyoplaeçmint di l' IP",
        "Name[x-test]": "xxGeolocation IPxx",
        "Name[zh_CN]": "IP 地理位置",
        "Name[zh_TW]": "Geolocation IP"
    },
    "X-KDE-ParentApp": "geolocation"
}
