{
    "KPlugin": {
        "Authors": [
            {
                "Email": "",
                "Name": ""
            }
        ],
        "Category": "",
        "Description": "Passive visual notifications for the user.",
        "Description[ar]": "إخطارات الجهاز المرئية للمستخدم.",
        "Description[az]": "Bu istifadəçi üçün qurğuların passiv vizual bildirişləri.",
        "Description[ca]": "Notificacions visuals passives per a l'usuari.",
        "Description[cs]": "Pasivní vizuální upozornění pro uživatele.",
        "Description[de]": "Passive sichtbare Benachrichtigungen für den Anwender.",
        "Description[en_GB]": "Passive visual notifications for the user.",
        "Description[es]": "Notificaciones visuales pasivas para el usuario.",
        "Description[eu]": "Erabiltzailearentzako ikusizko jakinarazpen pasiboak.",
        "Description[fi]": "Näkyvä passiivinen ilmoitus käyttäjälle.",
        "Description[fr]": "Notifications visuelles passives pour l'utilisateur.",
        "Description[hu]": "Passzív értesítő üzeneteket tud küldeni a felhasználónak.",
        "Description[ia]": "Notificationes visual passive pro le usator.",
        "Description[it]": "Notifiche visuali passive per l'utente.",
        "Description[ko]": "사용자에게 보이는 수동적인 알림입니다.",
        "Description[lt]": "Pasyvūs vaizdiniai pranešimai naudotojui.",
        "Description[nl]": "Passieve visuele meldingen voor de gebruiker.",
        "Description[nn]": "Passive visuelle varsel for brukaren.",
        "Description[pa]": "ਵਰਤੋਂਕਾਰ ਲਈ ਪੈਸਿਵ ਦਿੱਖ ਨੋਟੀਫਿਕੇਸ਼ਨ।",
        "Description[pl]": "Bierne i graficznie powiadamia użytkownika.",
        "Description[pt_BR]": "Notificações visuais passivas para o usuário.",
        "Description[ro]": "Notificări vizuale pasive pentru utilizator.",
        "Description[ru]": "Пассивные визуальные уведомления для пользователя.",
        "Description[sk]": "Pasívne vizuálne upozornenia pre užívateľa.",
        "Description[sl]": "Pasivna vidna obvestila za uporabnika.",
        "Description[sv]": "Passiva visuella underrättelser för användaren.",
        "Description[ta]": "பயனருக்கான பார்வைமுறை அறிவிப்புகள்",
        "Description[tr]": "Kullanıcı için pasif görsel bildirimler.",
        "Description[uk]": "Пасивні візуальні сповіщення для користувача.",
        "Description[vi]": "Thông báo trực quan thụ động dành cho người dùng.",
        "Description[x-test]": "xxPassive visual notifications for the user.xx",
        "Description[zh_CN]": "为用户提供被动出现的视觉通知。",
        "Icon": "preferences-desktop-notification-bell",
        "Id": "notifications",
        "Name": "Application Notifications",
        "Name[ar]": "إخطارات التطبيقات",
        "Name[az]": "Tətbiq bildirişləri",
        "Name[be@latin]": "Infarmavańni aplikacyj",
        "Name[bg]": "Програмни съобщения",
        "Name[bn]": "অ্যাপলিকেশন বিজ্ঞপ্তি",
        "Name[bn_IN]": "অ্যাপ্লিকেশনের সূচনাবার্তা",
        "Name[bs]": "Obavještenja programa",
        "Name[ca@valencia]": "Notificacions de les aplicacions",
        "Name[ca]": "Notificacions de les aplicacions",
        "Name[cs]": "Upozornění aplikací",
        "Name[csb]": "Dôwanié wiédzë ò aplikacëjach",
        "Name[da]": "Programbekendtgørelser",
        "Name[de]": "Anwendungs-Benachrichtigungen",
        "Name[el]": "Ειδοποιήσεις εφαρμογών",
        "Name[en_GB]": "Application Notifications",
        "Name[eo]": "Aplikaĵaj Atentigoj",
        "Name[es]": "Notificaciones de aplicaciones",
        "Name[et]": "Rakenduste märguanded",
        "Name[eu]": "Aplikazioen jakinarazpenak",
        "Name[fi]": "Sovellusilmoitukset",
        "Name[fr]": "Notifications des applications",
        "Name[fy]": "Applikaasje ntifikaasjes",
        "Name[ga]": "Fógairtí Feidhmchláir",
        "Name[gl]": "Notificacións das aplicacións",
        "Name[gu]": "કાર્યક્રમ નોંધણીઓ",
        "Name[he]": "הודעות יישומים",
        "Name[hi]": "अनुप्रयोग सूचनाएँ",
        "Name[hne]": "अनुपरयोग सूचना",
        "Name[hr]": "Obavijesti aplikacija",
        "Name[hsb]": "Zdźělenki aplikacije",
        "Name[hu]": "Értesítő üzenetek",
        "Name[ia]": "Notificationes de application",
        "Name[id]": "Notifikasi Aplikasi",
        "Name[is]": "Tilkynningar forrita",
        "Name[it]": "Notifiche delle applicazioni",
        "Name[ja]": "アプリケーションの通知",
        "Name[kk]": "Қолданба құлақтандырулары",
        "Name[km]": "ការ​ជូនដំណឹង​កម្មវិធី​",
        "Name[kn]": "ಅನ್ವಯ ಸೂಚನೆಗಳು",
        "Name[ko]": "프로그램 알림",
        "Name[ku]": "Hişyariyên Sepanê",
        "Name[lt]": "Programų pranešimai",
        "Name[lv]": "Programmu paziņojumi",
        "Name[mk]": "Известувања за апликации",
        "Name[ml]": "പ്രയോഗ അറിയിപ്പുകള്‍",
        "Name[mr]": "अनुप्रयोग सूचना",
        "Name[nb]": "Programvarslinger",
        "Name[nds]": "Programm-Bescheden",
        "Name[nl]": "Programmameldingen",
        "Name[nn]": "Programvarsel",
        "Name[or]": "ପ୍ରୟୋଗ ବିଜ୍ଞପ୍ତିଗୁଡ଼ିକ",
        "Name[pa]": "ਐਪਲੀਕੇਸ਼ਨ ਨੋਟੀਫਿਕੇਸ਼ਨ",
        "Name[pl]": "Powiadomienia programów",
        "Name[pt]": "Notificações das Aplicações",
        "Name[pt_BR]": "Notificações do aplicativo",
        "Name[ro]": "Notificări aplicații",
        "Name[ru]": "Уведомления приложений",
        "Name[si]": "යෙදුම් දැනුම් දීම්",
        "Name[sk]": "Upozornenia aplikácií",
        "Name[sl]": "Obvestila programov",
        "Name[sr@ijekavian]": "обавјештења програма",
        "Name[sr@ijekavianlatin]": "obavještenja programa",
        "Name[sr@latin]": "obaveštenja programa",
        "Name[sr]": "обавештења програма",
        "Name[sv]": "Programunderrättelser",
        "Name[ta]": "செயலி அறிவிப்புகள்",
        "Name[tg]": "Огоҳиҳои барнома",
        "Name[th]": "การแจ้งให้ทราบของโปรแกรม",
        "Name[tr]": "Uygulama Bildirimleri",
        "Name[ug]": "پروگرامما ئۇقتۇرۇشى",
        "Name[uk]": "Сповіщення програм",
        "Name[vi]": "Thông báo của ứng dụng",
        "Name[wa]": "Notifiaedjes do programe",
        "Name[x-test]": "xxApplication Notificationsxx",
        "Name[zh_CN]": "应用程序通知",
        "Name[zh_TW]": "應用程式通知",
        "Website": "https://kde.org/plasma-desktop"
    }
}
